{
    "id": 2,
    "name": "Jar Jar Binks",
    "role": "Outcast",
    "species": "Gungan",
    "gender": "Male",
    "height": "1.96",
    "weapon": "Electropole",
    "homeworld": "Naboo",
    "image": "data/characters/image/jarjarbinks.png",
    "alliance": "rebel",
    "bio": "A clumsy, well-meaning Gungan outcast on Naboo, Jar Jar Binks struggled to prove his worth throughout his life. Putting his awkward past behind him, Jar Jar left the swamps of Naboo to enter the even murkier waters of Coruscant politics, becoming a representative for his people in the galactic capital. There, his best intentions and eagerness to serve were exploited by scheming Senators and others in positions of power."

}
