{
    "description" : "The Naboo Royal Starship boasts a strikingly beautiful design that embodies the craftsmanship that prevailed in the peaceful years of the Republic. The polished, streamlined J-type 327 Nubian vessel lacks any offensive weaponry, but does feature strong shields and a competent hyperdrive. During the Trade Federation invasion of Naboo, Queen Amidala and her retinue escaped aboard the Royal Starship. Piloted by Ric Olie, the vessel narrowly avoided the Trade Federation blockade, though its hyperdrive was damaged. The ship limped to Tatooine, where a replacement T-14 hyperdrive generator was procured.",
    "image" : "data/vehicles/image/nabooroyalstarship.jpeg",
    "name" : "Naboo Royal Starship"
  }
